\relax 
\providecommand\zref@newlabel[2]{}
\catcode `"\active 
\babel@aux{ngerman}{}
\pgfsyspdfmark {pgfid1}{0}{37417649}
\@writefile{toc}{\contentsline {section}{\numberline {1}U-boot}{1}}
\@writefile{toc}{\contentsline {subsection}{\numberline {1.1}Boot sequence}{1}}
\@writefile{toc}{\contentsline {subsection}{\numberline {1.2}U-boot commands}{1}}
\@writefile{toc}{\contentsline {subsubsection}{\numberline {1.2.1}Load kernel}{1}}
\@writefile{toc}{\contentsline {subsection}{\numberline {1.3}Config / compile U-boot}{1}}
\@writefile{toc}{\contentsline {subsection}{\numberline {1.4}Secure options}{1}}
\@writefile{toc}{\contentsline {subsection}{\numberline {1.5}Create U-boot image}{1}}
\@writefile{toc}{\contentsline {subsubsection}{\numberline {1.5.1}Read elf}{1}}
\@writefile{toc}{\contentsline {subsection}{\numberline {1.6}zImage uImage}{1}}
\@writefile{toc}{\contentsline {subsection}{\numberline {1.7}Flattened Device Tree}{1}}
\@writefile{toc}{\contentsline {subsection}{\numberline {1.8}Integrity}{1}}
\@writefile{toc}{\contentsline {subsection}{\numberline {1.9}SDcard mapping}{1}}
\@writefile{toc}{\contentsline {section}{\numberline {2}Compilation du noyau}{1}}
\@writefile{toc}{\contentsline {subsection}{\numberline {2.1}Main kernel directories}{1}}
\@writefile{toc}{\contentsline {subsection}{\numberline {2.2}Secure Kernel options}{1}}
\@writefile{toc}{\contentsline {subsection}{\numberline {2.3}Network Secure options}{1}}
\@writefile{toc}{\contentsline {section}{\numberline {3}Valgrind}{1}}
\@writefile{toc}{\contentsline {subsection}{\numberline {3.1}Memcheck}{1}}
\@writefile{toc}{\contentsline {subsection}{\numberline {3.2}SGCheck}{1}}
\@writefile{toc}{\contentsline {subsection}{\numberline {3.3}Massif}{1}}
\@writefile{toc}{\contentsline {subsection}{\numberline {3.4}Callgrind}{1}}
\@writefile{toc}{\contentsline {subsection}{\numberline {3.5}Cachegrind}{1}}
\@writefile{toc}{\contentsline {section}{\numberline {4}Hardening Linux}{1}}
\@writefile{toc}{\contentsline {subsection}{\numberline {4.1}Check package}{1}}
\@writefile{toc}{\contentsline {subsection}{\numberline {4.2}Configure \& Cross-compile}{1}}
\@writefile{toc}{\contentsline {subsection}{\numberline {4.3}Check services and ports}{1}}
\@writefile{toc}{\contentsline {subsection}{\numberline {4.4}Check file systems}{1}}
\@writefile{toc}{\contentsline {subsection}{\numberline {4.5}File Permissions}{1}}
\@writefile{toc}{\contentsline {subsection}{\numberline {4.6}Network stack hardening}{1}}
\@writefile{toc}{\contentsline {subsection}{\numberline {4.7}Account}{1}}
\@writefile{toc}{\contentsline {subsection}{\numberline {4.8}Root login}{1}}
\@writefile{toc}{\contentsline {subsection}{\numberline {4.9}Application Hardening}{1}}
\@writefile{toc}{\contentsline {section}{\numberline {5}File system}{1}}
\@writefile{toc}{\contentsline {subsection}{\numberline {5.1}Types}{1}}
\@writefile{toc}{\contentsline {subsection}{\numberline {5.2}Ext2-3-4}{1}}
\@writefile{toc}{\contentsline {subsection}{\numberline {5.3}Embedded system partitions}{1}}
\@writefile{toc}{\contentsline {subsection}{\numberline {5.4}File system type}{1}}
\@writefile{toc}{\contentsline {subsubsection}{\numberline {5.4.1}Journalized fs}{1}}
\@writefile{toc}{\contentsline {subsubsection}{\numberline {5.4.2}B-tree / CoW}{1}}
\@writefile{toc}{\contentsline {subsubsection}{\numberline {5.4.3}Log fs}{1}}
\@writefile{toc}{\contentsline {subsubsection}{\numberline {5.4.4}squashfs}{1}}
\@writefile{toc}{\contentsline {subsubsection}{\numberline {5.4.5}tmpfs}{1}}
\@writefile{toc}{\contentsline {subsubsection}{\numberline {5.4.6}LUKS}{1}}
\@writefile{toc}{\contentsline {subsection}{\numberline {5.5}Key generation}{1}}
\pgfsyspdfmark {pgfid2}{0}{37417649}
\@writefile{toc}{\contentsline {subsection}{\numberline {5.6}Initramfs}{2}}
\@writefile{toc}{\contentsline {section}{\numberline {6}File systems security}{2}}
\@writefile{toc}{\contentsline {subsection}{\numberline {6.1}Secure accounts}{2}}
\@writefile{toc}{\contentsline {subsection}{\numberline {6.2}Real / Effective UID}{2}}
\@writefile{toc}{\contentsline {subsection}{\numberline {6.3}Acess Control List : ACL}{2}}
\@writefile{toc}{\contentsline {subsection}{\numberline {6.4}File attributes on ext2-3-4}{2}}
\@writefile{toc}{\contentsline {subsection}{\numberline {6.5}Find permission problems}{2}}
\@writefile{toc}{\contentsline {subsection}{\numberline {6.6}Secure /tmp}{2}}
\@writefile{toc}{\contentsline {subsection}{\numberline {6.7}Linux passwords}{2}}
\@writefile{toc}{\contentsline {section}{\numberline {7}Firewall IPtables}{2}}
\@writefile{toc}{\contentsline {subsection}{\numberline {7.1}Features}{2}}
\@writefile{toc}{\contentsline {subsection}{\numberline {7.2}Chain tables}{2}}
\@writefile{toc}{\contentsline {subsection}{\numberline {7.3}Configure iptables}{2}}
\@writefile{toc}{\contentsline {subsection}{\numberline {7.4}Iptables extensions}{2}}
\@writefile{toc}{\contentsline {subsection}{\numberline {7.5}NFQUEUE}{2}}
\@writefile{toc}{\contentsline {subsection}{\numberline {7.6}Knockd}{2}}
\@writefile{toc}{\contentsline {subsection}{\numberline {7.7}Fwknop}{2}}
\@writefile{toc}{\contentsline {subsubsection}{\numberline {7.7.1}Fwknop authentification}{2}}
\@writefile{toc}{\contentsline {subsection}{\numberline {7.8}fail2ban}{2}}
\@writefile{toc}{\contentsline {subsection}{\numberline {7.9}nmap}{2}}
\gdef\minted@oldcachelist{,
  default-pyg-prefix.pygstyle,
  paraiso-light.pygstyle,
  5A0E57549338B68E0E704EEC0F3BF3B5D1D36E22B074DB05613ECC06345ECBD2.pygtex,
  51376E6C4E02298D9A9BCC1F4D764E21D1D36E22B074DB05613ECC06345ECBD2.pygtex,
  2957CF732BEC7EE77EC58F2BA69E3724D1D36E22B074DB05613ECC06345ECBD2.pygtex,
  E2C418F71EF4A75D0D98AA872D65C2F9D1D36E22B074DB05613ECC06345ECBD2.pygtex,
  10D614EC90CC9C1D00A431EBDA2D36F7D1D36E22B074DB05613ECC06345ECBD2.pygtex,
  260D7A4CCE6138CCB876B1E645C58B1DD1D36E22B074DB05613ECC06345ECBD2.pygtex,
  E5129CE6E5F5872C14F289129F940BD0D1D36E22B074DB05613ECC06345ECBD2.pygtex,
  7A6FF597AC8FB74E357939EAE82DA008D1D36E22B074DB05613ECC06345ECBD2.pygtex,
  85AC45E9AB1882C9BECB0EB65B33829CD1D36E22B074DB05613ECC06345ECBD2.pygtex,
  FAE6A11E008AB35D23CA4E624668B519D1D36E22B074DB05613ECC06345ECBD2.pygtex,
  EF2033599279BE6CCAC15E93A2909779D1D36E22B074DB05613ECC06345ECBD2.pygtex,
  9F200FEA60575BC2027B0F0B551E3632D1D36E22B074DB05613ECC06345ECBD2.pygtex,
  7A96DA893B26DFB8287303A6B8CAD57AD1D36E22B074DB05613ECC06345ECBD2.pygtex,
  ABC8A35F2E34B1953F2E834DFEC748EFD1D36E22B074DB05613ECC06345ECBD2.pygtex,
  CCB298E49C69ECC8A89F09D0ECA98751D1D36E22B074DB05613ECC06345ECBD2.pygtex,
  44115C0BBC5071C63850BD4E83107A8CD1D36E22B074DB05613ECC06345ECBD2.pygtex,
  4B7EC6F9176A8998553C3B79D79CCBAFD1D36E22B074DB05613ECC06345ECBD2.pygtex,
  63799430B5CCD98F49839239E03E2839D1D36E22B074DB05613ECC06345ECBD2.pygtex,
  A86EE3DDBFCD71A054E20EAF63802E70D1D36E22B074DB05613ECC06345ECBD2.pygtex,
  54C914A40510BE54858D0D3DDFFF44D7D1D36E22B074DB05613ECC06345ECBD2.pygtex,
  0097A28E6255E0850CAE5FD8DA825113D1D36E22B074DB05613ECC06345ECBD2.pygtex,
  8571B3335D276B19C93C6D1D4DC44289D1D36E22B074DB05613ECC06345ECBD2.pygtex,
  1522A12069FA6A795BB246D9A7B672DED1D36E22B074DB05613ECC06345ECBD2.pygtex,
  8E6DAF26059C8369DE7AB4EA0AE6B9B6D1D36E22B074DB05613ECC06345ECBD2.pygtex,
  CE7E8E2B9B121D90AABE1BB2759682D6D1D36E22B074DB05613ECC06345ECBD2.pygtex,
  E94E578B96C1053A919660181A93E62CD1D36E22B074DB05613ECC06345ECBD2.pygtex,
  8D4F8EE1B5D0A13629AF73F13B32BD05D1D36E22B074DB05613ECC06345ECBD2.pygtex,
  4B15FB1092A6B260BC2F0EC323B130CCD1D36E22B074DB05613ECC06345ECBD2.pygtex}
